[{
    "name": "Accessories",
    "id": 1,
    "parent_id": 20
  },
  {
    "name": "Watches",
    "id": 57,
    "parent_id": 1
  },
  {
    "name": "Men",
    "id": 20,
    "parent_id": null
  },
  {
    "name": "Men",
    "id": 3,
    "parent_id": null
  },
  {
    "name": "Men",
    "id": 60,
    "parent_id": null
  },
  {
    "name": "Watches",
    "id": 27,
    "parent_id": 1
  },
  {
    "name": "Accessories",
    "id": 8,
    "parent_id": 58
  },
  {
    "name": "Watches",
    "id": 9,
    "parent_id": 1
  },
  {
    "name": "Accessories",
    "id": 58,
    "parent_id": 9
  },
  {
    "name": "Accessories",
    "id": 59,
    "parent_id": 58
  },
  {
    "name": "Accessories",
    "id": 4,
    "parent_id": 58
  }]